; Engine configuration file.
; It's best edited using the editor UI and not directly,
; since the parameters that go here are not all obvious.
;
; Format:
;   [section] ; section goes between []
;   param=value ; assign values to parameters

config_version=5

[application]

config/name="Deepwoods Smithery"
run/main_scene="res://GameWorld/game_root.tscn"
config/features=PackedStringArray("4.3")
config/icon="res://icon.png"

[autoload]

ItemManager="*res://Globals/ItemManager.gd"
PlayerData="*res://Globals/PlayerData.gd"
GameData="*res://Globals/GameData.gd"
AudioStreamManager="*res://Globals/AudioStreamManager.tscn"

[display]

window/size/viewport_width=960
window/size/viewport_height=540
window/size/window_width_override=1920
window/size/window_height_override=1080
window/stretch/mode="viewport"

[input]

ui_left={
"deadzone": 0.5,
"events": [Object(InputEventKey,"resource_local_to_scene":false,"resource_name":"","device":0,"window_id":0,"alt_pressed":false,"shift_pressed":false,"ctrl_pressed":false,"meta_pressed":false,"pressed":false,"keycode":4194319,"physical_keycode":0,"key_label":0,"unicode":0,"location":0,"echo":false,"script":null)
, Object(InputEventJoypadButton,"resource_local_to_scene":false,"resource_name":"","device":0,"button_index":13,"pressure":0.0,"pressed":false,"script":null)
, Object(InputEventKey,"resource_local_to_scene":false,"resource_name":"","device":0,"window_id":0,"alt_pressed":false,"shift_pressed":false,"ctrl_pressed":false,"meta_pressed":false,"pressed":false,"keycode":65,"physical_keycode":0,"key_label":0,"unicode":0,"location":0,"echo":false,"script":null)
]
}
ui_right={
"deadzone": 0.5,
"events": [Object(InputEventKey,"resource_local_to_scene":false,"resource_name":"","device":0,"window_id":0,"alt_pressed":false,"shift_pressed":false,"ctrl_pressed":false,"meta_pressed":false,"pressed":false,"keycode":4194321,"physical_keycode":0,"key_label":0,"unicode":0,"location":0,"echo":false,"script":null)
, Object(InputEventJoypadButton,"resource_local_to_scene":false,"resource_name":"","device":0,"button_index":14,"pressure":0.0,"pressed":false,"script":null)
, Object(InputEventKey,"resource_local_to_scene":false,"resource_name":"","device":0,"window_id":0,"alt_pressed":false,"shift_pressed":false,"ctrl_pressed":false,"meta_pressed":false,"pressed":false,"keycode":68,"physical_keycode":0,"key_label":0,"unicode":0,"location":0,"echo":false,"script":null)
]
}
ui_up={
"deadzone": 0.5,
"events": [Object(InputEventKey,"resource_local_to_scene":false,"resource_name":"","device":0,"window_id":0,"alt_pressed":false,"shift_pressed":false,"ctrl_pressed":false,"meta_pressed":false,"pressed":false,"keycode":4194320,"physical_keycode":0,"key_label":0,"unicode":0,"location":0,"echo":false,"script":null)
, Object(InputEventJoypadButton,"resource_local_to_scene":false,"resource_name":"","device":0,"button_index":11,"pressure":0.0,"pressed":false,"script":null)
, Object(InputEventKey,"resource_local_to_scene":false,"resource_name":"","device":0,"window_id":0,"alt_pressed":false,"shift_pressed":false,"ctrl_pressed":false,"meta_pressed":false,"pressed":false,"keycode":87,"physical_keycode":0,"key_label":0,"unicode":0,"location":0,"echo":false,"script":null)
]
}
ui_down={
"deadzone": 0.5,
"events": [Object(InputEventKey,"resource_local_to_scene":false,"resource_name":"","device":0,"window_id":0,"alt_pressed":false,"shift_pressed":false,"ctrl_pressed":false,"meta_pressed":false,"pressed":false,"keycode":4194322,"physical_keycode":0,"key_label":0,"unicode":0,"location":0,"echo":false,"script":null)
, Object(InputEventJoypadButton,"resource_local_to_scene":false,"resource_name":"","device":0,"button_index":12,"pressure":0.0,"pressed":false,"script":null)
, Object(InputEventKey,"resource_local_to_scene":false,"resource_name":"","device":0,"window_id":0,"alt_pressed":false,"shift_pressed":false,"ctrl_pressed":false,"meta_pressed":false,"pressed":false,"keycode":83,"physical_keycode":0,"key_label":0,"unicode":0,"location":0,"echo":false,"script":null)
]
}
ui_main_menu={
"deadzone": 0.5,
"events": [Object(InputEventKey,"resource_local_to_scene":false,"resource_name":"","device":0,"window_id":0,"alt_pressed":false,"shift_pressed":false,"ctrl_pressed":false,"meta_pressed":false,"pressed":false,"keycode":4194305,"physical_keycode":0,"key_label":0,"unicode":0,"location":0,"echo":false,"script":null)
]
}
ui_inventory={
"deadzone": 0.5,
"events": [Object(InputEventKey,"resource_local_to_scene":false,"resource_name":"","device":0,"window_id":0,"alt_pressed":false,"shift_pressed":false,"ctrl_pressed":false,"meta_pressed":false,"pressed":false,"keycode":69,"physical_keycode":0,"key_label":0,"unicode":0,"location":0,"echo":false,"script":null)
, Object(InputEventKey,"resource_local_to_scene":false,"resource_name":"","device":0,"window_id":0,"alt_pressed":false,"shift_pressed":false,"ctrl_pressed":false,"meta_pressed":false,"pressed":false,"keycode":73,"physical_keycode":0,"key_label":0,"unicode":0,"location":0,"echo":false,"script":null)
]
}
ui_hotbar_1={
"deadzone": 0.5,
"events": [Object(InputEventKey,"resource_local_to_scene":false,"resource_name":"","device":0,"window_id":0,"alt_pressed":false,"shift_pressed":false,"ctrl_pressed":false,"meta_pressed":false,"pressed":false,"keycode":49,"physical_keycode":0,"key_label":0,"unicode":0,"location":0,"echo":false,"script":null)
]
}
ui_hotbar_2={
"deadzone": 0.5,
"events": [Object(InputEventKey,"resource_local_to_scene":false,"resource_name":"","device":0,"window_id":0,"alt_pressed":false,"shift_pressed":false,"ctrl_pressed":false,"meta_pressed":false,"pressed":false,"keycode":50,"physical_keycode":0,"key_label":0,"unicode":0,"location":0,"echo":false,"script":null)
]
}
ui_hotbar_3={
"deadzone": 0.5,
"events": [Object(InputEventKey,"resource_local_to_scene":false,"resource_name":"","device":0,"window_id":0,"alt_pressed":false,"shift_pressed":false,"ctrl_pressed":false,"meta_pressed":false,"pressed":false,"keycode":51,"physical_keycode":0,"key_label":0,"unicode":0,"location":0,"echo":false,"script":null)
]
}
ui_hotbar_4={
"deadzone": 0.5,
"events": [Object(InputEventKey,"resource_local_to_scene":false,"resource_name":"","device":0,"window_id":0,"alt_pressed":false,"shift_pressed":false,"ctrl_pressed":false,"meta_pressed":false,"pressed":false,"keycode":52,"physical_keycode":0,"key_label":0,"unicode":0,"location":0,"echo":false,"script":null)
]
}
ui_hotbar_5={
"deadzone": 0.5,
"events": [Object(InputEventKey,"resource_local_to_scene":false,"resource_name":"","device":0,"window_id":0,"alt_pressed":false,"shift_pressed":false,"ctrl_pressed":false,"meta_pressed":false,"pressed":false,"keycode":53,"physical_keycode":0,"key_label":0,"unicode":0,"location":0,"echo":false,"script":null)
]
}
ui_hotbar_6={
"deadzone": 0.5,
"events": [Object(InputEventKey,"resource_local_to_scene":false,"resource_name":"","device":0,"window_id":0,"alt_pressed":false,"shift_pressed":false,"ctrl_pressed":false,"meta_pressed":false,"pressed":false,"keycode":54,"physical_keycode":0,"key_label":0,"unicode":0,"location":0,"echo":false,"script":null)
]
}
ui_hotbar_7={
"deadzone": 0.5,
"events": [Object(InputEventKey,"resource_local_to_scene":false,"resource_name":"","device":0,"window_id":0,"alt_pressed":false,"shift_pressed":false,"ctrl_pressed":false,"meta_pressed":false,"pressed":false,"keycode":55,"physical_keycode":0,"key_label":0,"unicode":0,"location":0,"echo":false,"script":null)
]
}
ui_hotbar_8={
"deadzone": 0.5,
"events": [Object(InputEventKey,"resource_local_to_scene":false,"resource_name":"","device":0,"window_id":0,"alt_pressed":false,"shift_pressed":false,"ctrl_pressed":false,"meta_pressed":false,"pressed":false,"keycode":56,"physical_keycode":0,"key_label":0,"unicode":0,"location":0,"echo":false,"script":null)
]
}
ui_hotbar_9={
"deadzone": 0.5,
"events": [Object(InputEventKey,"resource_local_to_scene":false,"resource_name":"","device":0,"window_id":0,"alt_pressed":false,"shift_pressed":false,"ctrl_pressed":false,"meta_pressed":false,"pressed":false,"keycode":57,"physical_keycode":0,"key_label":0,"unicode":0,"location":0,"echo":false,"script":null)
]
}
ui_hotbar_10={
"deadzone": 0.5,
"events": [Object(InputEventKey,"resource_local_to_scene":false,"resource_name":"","device":0,"window_id":0,"alt_pressed":false,"shift_pressed":false,"ctrl_pressed":false,"meta_pressed":false,"pressed":false,"keycode":48,"physical_keycode":0,"key_label":0,"unicode":0,"location":0,"echo":false,"script":null)
]
}
ui_hotbar_11={
"deadzone": 0.5,
"events": [Object(InputEventKey,"resource_local_to_scene":false,"resource_name":"","device":0,"window_id":0,"alt_pressed":false,"shift_pressed":false,"ctrl_pressed":false,"meta_pressed":false,"pressed":false,"keycode":45,"physical_keycode":0,"key_label":0,"unicode":0,"location":0,"echo":false,"script":null)
]
}
ui_hotbar_12={
"deadzone": 0.5,
"events": [Object(InputEventKey,"resource_local_to_scene":false,"resource_name":"","device":0,"window_id":0,"alt_pressed":false,"shift_pressed":false,"ctrl_pressed":false,"meta_pressed":false,"pressed":false,"keycode":61,"physical_keycode":0,"key_label":0,"unicode":0,"location":0,"echo":false,"script":null)
]
}
ui_use_item={
"deadzone": 0.5,
"events": [Object(InputEventMouseButton,"resource_local_to_scene":false,"resource_name":"","device":0,"window_id":0,"alt_pressed":false,"shift_pressed":false,"ctrl_pressed":false,"meta_pressed":false,"button_mask":0,"position":Vector2(0, 0),"global_position":Vector2(0, 0),"factor":1.0,"button_index":1,"canceled":false,"pressed":false,"double_click":false,"script":null)
]
}
ui_alt_use_itemi={
"deadzone": 0.5,
"events": [Object(InputEventMouseButton,"resource_local_to_scene":false,"resource_name":"","device":0,"window_id":0,"alt_pressed":false,"shift_pressed":false,"ctrl_pressed":false,"meta_pressed":false,"button_mask":0,"position":Vector2(0, 0),"global_position":Vector2(0, 0),"factor":1.0,"button_index":2,"canceled":false,"pressed":false,"double_click":false,"script":null)
]
}

[locale]

translations=PackedStringArray("res://Translations/Deepwood Smithery Translations - Sheet1.en.translation", "res://Translations/Deepwood Smithery Translations - Sheet1.es.translation")
locale_filter=[1, ["en", "es"]]

[rendering]

environment/defaults/default_environment="res://default_env.tres"
2d/snapping/use_gpu_pixel_snap=true
quality/2d/use_nvidia_rect_flicker_workaround=true
quality/2d/use_pixel_snap=true
